\relax 
\bibstyle{plain}
\babel@aux{english}{}
\citation{Tick}
\@writefile{toc}{\contentsline {section}{\numberline {1}Motivation}{1}\protected@file@percent }
\@writefile{lof}{\contentsline {figure}{\numberline {1}{\ignorespaces Physical process inside the tissue}}{1}\protected@file@percent }
\newlabel{physics}{{1}{1}}
\citation{Treeby2010}
\citation{docudisccalc}
\citation{Treeby2010}
\citation{docudisccalc}
\@writefile{toc}{\contentsline {section}{\numberline {2}The forward problem}{2}\protected@file@percent }
\newlabel{forwardProblem}{{2}{2}}
\@writefile{toc}{\contentsline {subsection}{\numberline {2.1}The wave equation}{2}\protected@file@percent }
\newlabel{PDEwave}{{2.1}{2}}
\newlabel{initialcondwave}{{2.2}{2}}
\@writefile{toc}{\contentsline {subsection}{\numberline {2.2}The discretization of the wave equation}{2}\protected@file@percent }
\@writefile{toc}{\contentsline {subsection}{\numberline {2.3}Solution of the wave equation}{2}\protected@file@percent }
\@writefile{toc}{\contentsline {subsubsection}{\numberline {2.3.1}Generating the artificial data}{3}\protected@file@percent }
\@writefile{lof}{\contentsline {figure}{\numberline {2}{\ignorespaces Image sequence of the k-wave toolbox simulation}}{3}\protected@file@percent }
\newlabel{wavesimulation}{{2}{3}}
\@writefile{toc}{\contentsline {subsubsection}{\numberline {2.3.2}Storing the generated data}{3}\protected@file@percent }
\@writefile{toc}{\contentsline {subsubsection}{\numberline {2.3.3}Superposition principle}{4}\protected@file@percent }
\@writefile{lof}{\contentsline {figure}{\numberline {3}{\ignorespaces Superposition of two waves}}{4}\protected@file@percent }
\newlabel{super}{{3}{4}}
\@writefile{toc}{\contentsline {subsection}{\numberline {2.4}The discrete observation model}{4}\protected@file@percent }
\newlabel{modelequ}{{2.4}{4}}
\newlabel{dimensions}{{2.5}{4}}
\citation{allmaras}
\@writefile{toc}{\contentsline {section}{\numberline {3}The inverse problem}{5}\protected@file@percent }
\newlabel{inverseProblem}{{3}{5}}
\@writefile{toc}{\contentsline {subsection}{\numberline {3.1}The Bayesian Approach}{5}\protected@file@percent }
\newlabel{errordist}{{3.1}{5}}
\newlabel{priordist}{{3.2}{5}}
\newlabel{bayesthm}{{3.5}{5}}
\newlabel{BayesTheorem}{{3.1}{5}}
\newlabel{posteriorgauss}{{3.2}{5}}
\newlabel{likelihood}{{3.7}{6}}
\@writefile{toc}{\contentsline {subsection}{\numberline {3.2}Different prior choices}{7}\protected@file@percent }
\@writefile{lof}{\contentsline {figure}{\numberline {4}{\ignorespaces Samples of the three different priors with $\eta _{p_0}=0$, $\sigma _{p_0}^2=3.5$ and $l = 0.125\cdot 10^{-3}$}}{7}\protected@file@percent }
\newlabel{priors}{{4}{7}}
\@writefile{toc}{\contentsline {subsection}{\numberline {3.3}Reconstruction of the initial pressure}{7}\protected@file@percent }
\@writefile{lof}{\contentsline {figure}{\numberline {5}{\ignorespaces Initial pressure used for artificial data generation}}{8}\protected@file@percent }
\newlabel{groundtruth}{{5}{8}}
\@writefile{lof}{\contentsline {figure}{\numberline {6}{\ignorespaces Reconstruction results and squared errors for WN, OU and SQE from left to right }}{8}\protected@file@percent }
\newlabel{difprior}{{6}{8}}
\citation{Alexanderian}
\@writefile{lof}{\contentsline {figure}{\numberline {7}{\ignorespaces Reconstruction results and variance with different sensor designs for SQE}}{9}\protected@file@percent }
\newlabel{difSQE}{{7}{9}}
\@writefile{toc}{\contentsline {section}{\numberline {4}Optimal sensor design}{9}\protected@file@percent }
\newlabel{optimalSensorDesign}{{4}{9}}
\@writefile{toc}{\contentsline {subsection}{\numberline {4.1}Motivation}{9}\protected@file@percent }
\@writefile{lof}{\contentsline {figure}{\numberline {8}{\ignorespaces Reconstruction results with different sensor design for SQE}}{10}\protected@file@percent }
\newlabel{sensorSQE}{{8}{10}}
\@writefile{toc}{\contentsline {subsection}{\numberline {4.2}Weighting of the sensors}{10}\protected@file@percent }
\citation{Alexanderian}
\newlabel{postcov}{{4.5}{11}}
\@writefile{toc}{\contentsline {subsection}{\numberline {4.3}Optimization problem}{11}\protected@file@percent }
\@writefile{toc}{\contentsline {subsubsection}{\numberline {4.3.1}Formulation of the optimization problem}{11}\protected@file@percent }
\@writefile{toc}{\contentsline {subsubsection}{\numberline {4.3.2}Penalty function}{11}\protected@file@percent }
\citation{Alexanderian}
\@writefile{lof}{\contentsline {figure}{\numberline {9}{\ignorespaces Function $f_\epsilon $ for different $\epsilon $ values}}{12}\protected@file@percent }
\newlabel{epsilon}{{9}{12}}
\citation{Alexanderian}
\citation{Alexanderian}
\@writefile{toc}{\contentsline {subsubsection}{\numberline {4.3.3}Implementation overview}{13}\protected@file@percent }
\@writefile{toc}{\contentsline {subsubsection}{\numberline {4.3.4}Computation speed up}{13}\protected@file@percent }
\newlabel{postcvapprox}{{4.11}{14}}
\newlabel{Hmisfitr_gradient}{{4.12}{14}}
\@writefile{lof}{\contentsline {figure}{\numberline {10}{\ignorespaces Reconstruction with all sensors (l.) \& with optimization for two $\gamma $ values (r.)}}{14}\protected@file@percent }
\newlabel{firstopt}{{10}{14}}
\@writefile{toc}{\contentsline {subsubsection}{\numberline {4.3.5}First optimization results}{14}\protected@file@percent }
\newlabel{matlaboptsettings}{{4.3.5}{14}}
\citation{avron_toledo_2011}
\@writefile{lof}{\contentsline {figure}{\numberline {11}{\ignorespaces Reconstr. with optimization (u.) \& without optimization (d.)}}{15}\protected@file@percent }
\newlabel{optequ}{{11}{15}}
\@writefile{toc}{\contentsline {subsubsection}{\numberline {4.3.6}Optimization with Trace Estimator}{15}\protected@file@percent }
\@writefile{lof}{\contentsline {figure}{\numberline {12}{\ignorespaces Optimization with trace estimator (u.) \& without (d.)}}{16}\protected@file@percent }
\newlabel{opttrace}{{12}{16}}
\@writefile{toc}{\contentsline {subsubsection}{\numberline {4.3.7}Influence of the control parameter}{16}\protected@file@percent }
\@writefile{lof}{\contentsline {figure}{\numberline {13}{\ignorespaces Influence of $\gamma $ on the sparsity of the sensor design}}{17}\protected@file@percent }
\newlabel{double layer}{{13}{17}}
\@writefile{toc}{\contentsline {section}{\numberline {5}Conclusion}{17}\protected@file@percent }
\bibdata{Literatur}
\bibcite{Alexanderian}{1}
\bibcite{allmaras}{2}
\bibcite{avron_toledo_2011}{3}
\bibcite{docudisccalc}{4}
\bibcite{Tick}{5}
\bibcite{Treeby2010}{6}
